^C:\USERS\USER\DOCUMENTS\MAGSHIMIM\YEAR 2\SEMESTER A\ADVANCED PROGRAMMING\LESSON 10\SOLUTION\EX1\DEBUG\CUSTOMER.OBJ|C:\USERS\USER\DOCUMENTS\MAGSHIMIM\YEAR 2\SEMESTER A\ADVANCED PROGRAMMING\LESSON 10\SOLUTION\EX1\DEBUG\ITEM.OBJ|C:\USERS\USER\DOCUMENTS\MAGSHIMIM\YEAR 2\SEMESTER A\ADVANCED PROGRAMMING\LESSON 10\SOLUTION\EX1\DEBUG\MAIN.OBJ|C:\USERS\USER\DOCUMENTS\MAGSHIMIM\YEAR 2\SEMESTER A\ADVANCED PROGRAMMING\LESSON 10\SOLUTION\EX1\DEBUG\MENU.OBJ
C:\USERS\USER\DOCUMENTS\MAGSHIMIM\YEAR 2\SEMESTER A\ADVANCED PROGRAMMING\LESSON 10\SOLUTION\DEBUG\EX1.EXE
C:\USERS\USER\DOCUMENTS\MAGSHIMIM\YEAR 2\SEMESTER A\ADVANCED PROGRAMMING\LESSON 10\SOLUTION\DEBUG\EX1.ILK
C:\USERS\USER\DOCUMENTS\MAGSHIMIM\YEAR 2\SEMESTER A\ADVANCED PROGRAMMING\LESSON 10\SOLUTION\DEBUG\EX1.PDB
